6 Vôos em Nova York de 2013 | Apostila: introdução ao pacote dplyr
…
6 Vôos em Nova York de 2013

Neste capítulo, vamos nos concentrar em como usar o pacote dplyr e o que aprendemos no capítulo anterior. Ilustraremos as ideias principais usando dados do pacote nycflights13 e usaremos o ggplot2 para nos ajudar a entender os dados.

library(nycflights13)
library(tidyverse) # ou isoladamente: library(dplyr).

6.1 nycflights13

Este quadro de dados contém todos os 336.776 vôos que partiram de Nova York em 2013. Os dados são do Bureau of Transportation Statistics dos EUA e estão documentados em ?flights.

flights

## # A tibble: 336,776 x 19
##     year month   day dep_time sched_dep_time dep_delay arr_time
##    <int> <int> <int>    <int>          <int>     <dbl>    <int>
##  1  2013     1     1      517            515         2      830
##  2  2013     1     1      533            529         4      850
##  3  2013     1     1      542            540         2      923
##  4  2013     1     1      544            545        -1     1004
##  5  2013     1     1      554            600        -6      812
##  6  2013     1     1      554            558        -4      740
##  7  2013     1     1      555            600        -5      913
##  8  2013     1     1      557            600        -3      709
##  9  2013     1     1      557            600        -3      838
## 10  2013     1     1      558            600        -2      753
## # ... with 336,766 more rows, and 12 more variables: sched_arr_time <int>,
## #   arr_delay <dbl>, carrier <chr>, flight <int>, tailnum <chr>,
## #   origin <chr>, dest <chr>, air_time <dbl>, distance <dbl>, hour <dbl>,
## #   minute <dbl>, time_hour <dttm>
…
