4 Manipulando Data Frames com dplyr | Apostila: introdução ao pacote dplyr
…
Figure 4.1: Conjunto completo de operações booleanas. x é o círculo do lado esquerdo, y é o círculo do lado direito e a região sombreada mostra quais partes cada operador seleciona.

O código a seguir localiza todas as temperaturas iguais a 30ºF ou 40ºF no banco:

chicago %>% 
  filter(tmpd == 30 | tmpd == 40)

## # A tibble: 136 x 9
##    city   tmpd Temp_Orv date        pm25 pm10tmean2 o3tmean2 no2tmean2
##    <chr> <dbl>    <dbl> <date>     <dbl>      <dbl>    <dbl>     <dbl>
##  1 chic     40     33.6 2005-12-27  23.6       27       4.47      23.5
##  2 chic     30     27.9 2005-12-15  14.4       16.5     4.90      25.4
##  3 chic     30     21.1 2005-11-18  11.7       22.4     4.53      25.0
##  4 chic     40     36.7 2005-10-23   8.5       10      11.6       18.1
##  5 chic     40     25.1 2005-05-02   8         24      17.0       15.4
##  6 chic     30     22.7 2005-03-11  12.0       20.5    23.1       19.9
##  7 chic     30     18.2 2005-02-16  12.8       27.5    19.1       19.9
##  8 chic     30     25   2005-02-03  47.4       53.6     7.27      48.6
##  9 chic     30     26.2 2005-01-30  NA         23      12.4       23.4
## 10 chic     30     27.6 2005-01-09  19.1       17      11.4       19.0
## # ... with 126 more rows, and 1 more variable: pm25difmean <dbl>

Às vezes, você pode simplificar um subconjunto complicado lembrando a lei de De Morgan: !(x & y) é o mesmo que !x | !y e !(x | y) é o mesmo que !x & !y. Por exemplo, se você deseja encontrar temperaturas voos que não foram atrasados (na chegada ou na partida) por mais de duas horas, você pode usar um dos dois filtros a seguir:

chicago %>% 
  filter(!(tmpd > 30 & pm25 < 15))

## # A tibble: 2,156 x 9
##    city   tmpd Temp_Orv date        pm25 pm10tmean2 o3tmean2 no2tmean2
##    <chr> <dbl>    <dbl> <date>     <dbl>      <dbl>    <dbl>     <dbl>
##  1 chic     35     30.1 2005-12-31  15         23.5     2.53      13.2
##  2 chic     36     31   2005-12-30  15.1       19.2     3.03      22.8
##  3 chic     37     34.5 2005-12-28  17.8       27.5     3.26      19.3
##  4 chic     40     33.6 2005-12-27  23.6       27       4.47      23.5
##  5 chic     37     35.2 2005-12-24  30.8       25.2     1.77      32.0
##  6 chic     41     32.6 2005-12-23  32.9       34.5     6.91      29.1
##  7 chic     22     23.3 2005-12-22  36.6       42.5     5.39      33.7
##  8 chic     12      7.7 2005-12-21  37.9       59.5     3.66      34.9
##  9 chic     13      7.7 2005-12-20  25.8       32       3.85      32.9
## 10 chic      5     -0.3 2005-12-19  21.2       21       8.06      31.8
## # ... with 2,146 more rows, and 1 more variable: pm25difmean <dbl>
…
